{
	"info": {
		"_postman_id": "f0745d2f-e580-491a-8cb5-9376e58d30dc",
		"name": "SchoolShopApp",
		"schema": "https://schema.getpostman.com/json/collection/v2.1.0/collection.json"
	},
	"item": [
		{
			"name": "ServerTime",
			"request": {
				"method": "GET",
				"header": [],
				"url": {
					"raw": "https://schoolshopapp.palita.pl:432/ServerTime",
					"protocol": "https",
					"host": [
						"schoolshopapp",
						"palita",
						"pl"
					],
					"port": "432",
					"path": [
						"ServerTime"
					]
				}
			},
			"response": []
		},
		{
			"name": "User_Login",
			"protocolProfileBehavior": {
				"disableBodyPruning": true
			},
			"request": {
				"method": "GET",
				"header": [
					{
						"key": "Password",
						"type": "text",
						"value": "abc123"
					},
					{
						"key": "Uniqueid",
						"type": "text",
						"value": "abcdef123456"
					}
				],
				"body": {
					"mode": "formdata",
					"formdata": []
				},
				"url": {
					"raw": "https://schoolshopapp.palita.pl:432/User/Login",
					"protocol": "https",
					"host": [
						"schoolshopapp",
						"palita",
						"pl"
					],
					"port": "432",
					"path": [
						"User",
						"Login"
					]
				}
			},
			"response": []
		},
		{
			"name": "Coupon_Check",
			"request": {
				"method": "PUT",
				"header": [
					{
						"key": "Token",
						"type": "text",
						"value": "0249AFE6-63A0-4C70-B7F2-8D51CB6EAA99"
					}
				],
				"body": {
					"mode": "formdata",
					"formdata": []
				},
				"url": {
					"raw": "https://schoolshopapp.palita.pl:432/Coupon/Check?Uniqueid=201912010001123",
					"protocol": "https",
					"host": [
						"schoolshopapp",
						"palita",
						"pl"
					],
					"port": "432",
					"path": [
						"Coupon",
						"Check"
					],
					"query": [
						{
							"key": "Uniqueid",
							"value": "201912010001123"
						}
					]
				}
			},
			"response": []
		}
	]
}